Making maps using geofi-package
…
pop_data <- bind_rows(
  tibble(
    municipality_code = polygon$municipality_code
  ) |> 
    mutate(population = rnorm(n = nrow(polygon), mean = 2000, sd = 250),
           time = 2020),
  tibble(
    municipality_code = polygon$municipality_code
  ) |> 
    mutate(population = rnorm(n = nrow(polygon), mean = 2000, sd = 250),
           time = 2021)
  )
pop_data
#> # A tibble: 618 × 3
#>    municipality_code population  time
#>                <int>      <dbl> <dbl>
#>  1                 5      2551.  2020
#>  2                 9      2104.  2020
#>  3                10      1580.  2020
#>  4                16      2137.  2020
#>  5                18      2380.  2020
#>  6                19      1677.  2020
#>  7                20      1938.  2020
#>  8                35      1680.  2020
#>  9                43      2156.  2020
#> 10                46      2197.  2020
#> # ℹ 608 more rows
…
