Joining attribute data with geofi data
…
library(tidyr)
library(janitor)
library(sf)
px_data <- as_tibble(
  as.data.frame(px_raw, 
                column.name.type = "text", 
                variable.value.type = "text")
  ) %>% setNames(make_clean_names(names(.))) %>% 
  pivot_longer(names_to = "information", values_to = "municipal_key_figures", 3:ncol(.))
px_data
} else {
  message("One or more of the following packages is not available: ", 
          paste(libs, collapse = ", "))
}
#> # A tibble: 12,800 × 4
#>    region_2020   year  information                              municipal_key_f…
#>    <chr>         <chr> <chr>                                               <dbl>
#>  1 WHOLE COUNTRY 2019  degree_of_urbanisation_percent                       86.4
#>  2 WHOLE COUNTRY 2019  population                                      5525292  
#>  3 WHOLE COUNTRY 2019  population_change_from_the_previous_yea…              0.1
#>  4 WHOLE COUNTRY 2019  share_of_persons_aged_under_15_of_the_p…             15.8
#>  5 WHOLE COUNTRY 2019  share_of_persons_aged_15_to_64_of_the_p…             62  
#>  6 WHOLE COUNTRY 2019  share_of_persons_aged_over_64_of_the_po…             22.3
#>  7 WHOLE COUNTRY 2019  share_of_swedish_speakers_of_the_popula…              5.2
#>  8 WHOLE COUNTRY 2019  share_of_foreign_citizens_of_the_popula…              4.8
#>  9 WHOLE COUNTRY 2019  excess_of_births_persons                          -8336  
#> 10 WHOLE COUNTRY 2019  intermunicipal_migration_gain_loss_pers…              0  
#> # … with 12,790 more rows

Once we have the data in long format we can observe the region_2020-column.

if (check_namespaces(pkgs = libs)) {
count(px_data, region_2020)
  } else {
  message("One or more of the following packages is not available: ", 
          paste(libs, collapse = ", "))
}
#> # A tibble: 400 × 2
#>    region_2020              n
#>    <chr>                <int>
#>  1 Akaa                    32
#>  2 Alajärvi                32
#>  3 Alavieska               32
#>  4 Alavus                  32
#>  5 Asikkala                32
#>  6 Askola                  32
#>  7 Aura                    32
#>  8 Brändö                  32
#>  9 Central Finland         32
#> 10 Central Ostrobothnia    32
#> # … with 390 more rows
…
xdf %>% 
    count(shp)
#> # A tibble: 22 × 2
#>    shp                                        n
#>    <chr>                                  <int>
#>  1 All areas                                  1
#>  2 Central Finland Hospital District          1
#>  3 Central Ostrobothnia Hospital District     1
#>  4 Helsinki and Uusimaa Hospital District     1
#>  5 Itä-Savo Hospital District                 1
#>  6 Kainuu Hospital District                   1
#>  7 Kanta-Häme Hospital District               1
#>  8 Kymenlaakso Hospital District              1
#>  9 Lappi Hospital District                    1
#> 10 Länsi-Pohja Hospital District              1
#> # … with 12 more rows
…
px_data <- as_tibble(
  as.data.frame(px_raw, 
                column.name.type = "text", 
                variable.value.type = "text")
  ) %>% setNames(make_clean_names(names(.)))
px_data %>% 
  filter(postal_code_area != "Finland")
} else {
  message("One or more of the following packages is not available: ", 
          paste(libs, collapse = ", "))
}
#> # A tibble: 72,624 × 3
#>    postal_code_area                                data         paavo_open_data…
#>    <chr>                                           <chr>                   <dbl>
#>  1 00100 Helsinki Keskusta - Etu-Töölö   (Helsinki Inhabitants…            18284
#>  2 00100 Helsinki Keskusta - Etu-Töölö   (Helsinki Females, 20…             9613
#>  3 00100 Helsinki Keskusta - Etu-Töölö   (Helsinki Males, 2017…             8671
#>  4 00100 Helsinki Keskusta - Etu-Töölö   (Helsinki Average age…               41
#>  5 00100 Helsinki Keskusta - Etu-Töölö   (Helsinki 0-2 years, …              434
#>  6 00100 Helsinki Keskusta - Etu-Töölö   (Helsinki 3-6 years, …              521
#>  7 00100 Helsinki Keskusta - Etu-Töölö   (Helsinki 7-12 years,…              711
#>  8 00100 Helsinki Keskusta - Etu-Töölö   (Helsinki 13-15 years…              274
#>  9 00100 Helsinki Keskusta - Etu-Töölö   (Helsinki 16-17 years…              185
#> 10 00100 Helsinki Keskusta - Etu-Töölö   (Helsinki 18-19 years…              264
#> # … with 72,614 more rows
…
